3 A primer on Webscraping | Data Harvesting with R
…
cleaned_data <-
  semi_cleaned_data %>%
  pivot_longer(-Election, names_to = "parties")

cleaned_data

## # A tibble: 255 × 3
##    Election parties value
##       <dbl> <chr>   <dbl>
##  1     1977 UCD      34.4
##  2     1977 PSOE     29.3
##  3     1977 PP        8.3
##  4     1977 IU        9.3
##  5     1977 CDC       2.8
##  6     1977 PNV       1.7
##  7     1977 ERC       0.8
##  8     1977 BNG       0.1
##  9     1977 EHB       0.2
## 10     1977 CDS      NA  
## # … with 245 more rows
…
