12 A primer on APIs | Data Harvesting with R
…
res_req <-
  req %>%
  req_perform()

cali_data <-
  res_req %>%
  resp_body_json() %>%
  transpose() %>%
  as_tibble() %>%
  unnest()

cali_data

## # A tibble: 5,848 × 11
##    Country Region Code  Date  Sex   Age   AgeInt Metric Measure Value templateID
##    <chr>   <chr>  <chr> <chr> <chr> <chr>  <int> <chr>  <chr>   <int> <chr>     
##  1 USA     New Y… US-NY 2020… m     0         10 Count  Cases       1 USA_CDC_c…
##  2 USA     New Y… US-NY 2020… m     10        10 Count  Cases       0 USA_CDC_c…
##  3 USA     New Y… US-NY 2020… m     20        10 Count  Cases       4 USA_CDC_c…
##  4 USA     New Y… US-NY 2020… m     30        10 Count  Cases       2 USA_CDC_c…
##  5 USA     New Y… US-NY 2020… m     40        10 Count  Cases       3 USA_CDC_c…
##  6 USA     New Y… US-NY 2020… m     50        10 Count  Cases       3 USA_CDC_c…
##  7 USA     New Y… US-NY 2020… m     60        10 Count  Cases       1 USA_CDC_c…
##  8 USA     New Y… US-NY 2020… m     70        10 Count  Cases       1 USA_CDC_c…
##  9 USA     New Y… US-NY 2020… m     0         10 Count  Cases       3 USA_CDC_c…
## 10 USA     New Y… US-NY 2020… m     10        10 Count  Cases       3 USA_CDC_c…
## # … with 5,838 more rows
…
