11 A primer on APIs | Data Harvesting with R
…
Or the content type:

resp_content_type(resp_california_m)
## [1] "application/json"

Then how do we extract the body containing the data from the request? It depends on the content type that was returned. In our case it’s JSON so we can use resp_body_json. Whenever you receive a response, depending on the type of data you receive, your best bet is to look at resp_body_* for the content type of your request. So for our case, we can safely extract it:

resp_body_california_m <-
  resp_california_m %>%
  resp_body_json(simplifyVector = TRUE) %>%
  as_tibble()

resp_body_california_m
## # A tibble: 5,848 × 11
##    Country Region Code  Date  Sex   Age   AgeInt Metric Measure Value templateID
##    <chr>   <chr>  <chr> <chr> <chr> <chr>  <int> <chr>  <chr>   <int> <chr>     
##  1 USA     Calif… US-CA 2020… m     0         10 Count  Cases       0 USA_CDC_c…
##  2 USA     Calif… US-CA 2020… m     10        10 Count  Cases       0 USA_CDC_c…
##  3 USA     Calif… US-CA 2020… m     20        10 Count  Cases       2 USA_CDC_c…
##  4 USA     Calif… US-CA 2020… m     30        10 Count  Cases       2 USA_CDC_c…
##  5 USA     Calif… US-CA 2020… m     40        10 Count  Cases       1 USA_CDC_c…
##  6 USA     Calif… US-CA 2020… m     50        10 Count  Cases       1 USA_CDC_c…
##  7 USA     Calif… US-CA 2020… m     60        10 Count  Cases       1 USA_CDC_c…
##  8 USA     Calif… US-CA 2020… m     70        10 Count  Cases       1 USA_CDC_c…
##  9 USA     Calif… US-CA 2020… m     0         10 Count  Cases       0 USA_CDC_c…
## 10 USA     Calif… US-CA 2020… m     10        10 Count  Cases       0 USA_CDC_c…
## # … with 5,838 more rows
…
