6 Case study: Scraping Spanish school locations from the web | Data Harvesting with R
…
These are schools that other people visited when visiting this specific school. If you were doing some type of network analysis, you might want to analyze whether people visiting certain type of schools are interested in schools with certain properties. For that, you might need to actually go to the other school’s websites and extract information. Right now we won’t do that, but your task is to extract the other school’s links in case you wanted to automatically scrape these schools as well. For each school, you’ll have four links to other similar schools. Your result should be like this but for 27 schools:

## # A tibble: 27 × 4
##    school_one                                school_two school_three school_four
##    <chr>                                     <chr>      <chr>        <chr>      
##  1 /Colegio/detalles-colegio.action?id=1500… /Colegio/… /Colegio/de… /Colegio/d…
##  2 /Colegio/detalles-colegio.action?id=1502… /Colegio/… /Colegio/de… /Colegio/d…
##  3 /Colegio/detalles-colegio.action?id=2009… /Colegio/… /Colegio/de… /Colegio/d…
##  4 /Colegio/detalles-colegio.action?id=2009… /Colegio/… /Colegio/de… /Colegio/d…
##  5 /Colegio/detalles-colegio.action?id=2804… /Colegio/… /Colegio/de… /Colegio/d…
##  6 /Colegio/detalles-colegio.action?id=2804… /Colegio/… /Colegio/de… /Colegio/d…
##  7 /Colegio/detalles-colegio.action?id=2806… /Colegio/… /Colegio/de… /Colegio/d…
##  8 /Colegio/detalles-colegio.action?id=2805… /Colegio/… /Colegio/de… /Colegio/d…
##  9 /Colegio/detalles-colegio.action?id=2806… /Colegio/… /Colegio/de… /Colegio/d…
## 10 /Colegio/detalles-colegio.action?id=2805… /Colegio/… /Colegio/de… /Colegio/d…
## # … with 17 more rows

Hint: you’ll want to look for the hyperlink that leads to each school in the href tag.

Combine all_schools with the previous exercises into a final data frame for each school. Final result should like this but for 27 schools:

## # A tibble: 27 × 11
##    latitude longitude public_private type_school mode_school amenities addresses
##       <dbl>     <dbl> <chr>          <chr>       <chr>       <chr>     <chr>    
##  1     42.7     -8.66 Private        Escuela In… Presencial  <NA>      CALZADA …
##  2     43.2     -8.89 Public         Escuela In… Presencial  <NA>      TRABE. 1…
##  3     39.0     -1.23 Public         Escuela In… Presencial  <NA>      CL. MEJO…
##  4     39.2     -1.62 Public         Escuela In… Presencial  <NA>      TR. CANT…
##  5     40.4     -3.64 Private        Escuela In… Presencial  <NA>      C/ de la…
##  6     40.2     -3.11 Public         Escuela de… Presencial  <NA>      C/ Mayor…
##  7     40.4     -3.70 Public         Escuela In… Presencial  Horario … JOSÉ ABA…
##  8     40.3     -3.52 Private        Escuela In… Presencial  <NA>      C/ Feder…
##  9     40.5     -3.37 Public         Escuela In… Presencial  <NA>      C/ José …
## 10     40.6     -3.45 Public         Escuela de… Presencial  <NA>      C/ Subid…
## # … with 17 more rows, and 4 more variables: school_one <chr>,
## #   school_two <chr>, school_three <chr>, school_four <chr>
…
