Introduction to Regex
…
str_view_all(
  c("Angel is 8 years old", "Martha is 56 years old"),
  "\\d+"
)

Special classes: []

Shortcut to extend the regexp | (or) and make it more flexible:

retirement <-
  read_html(retirement_age_europe_ex()) %>% html_table() %>% .[[2]]

retirement

# A tibble: 41 × 6
   Country                Men               Women         Year  Notes References
   <chr>                  <chr>             <chr>         <chr> <chr> <chr>     
 1 Albania                65                61            2020  ""    [1]       
 2 Austria                65                60            2018  "In … [1][3]    
 3 Belarus                62.5              57.5          2021  "By … [5]       
 4 Belgium                65                65            2018  "In … [5]       
 5 Bosnia and Herzegovina 65                65            2011  ""    [1]       
 6 Bulgaria               64 (and 4 months) 61 (and 8 mo… 2021  "In … [2]       
 7 Croatia                65                62            2018  "By … [2]       
 8 Cyprus                 65                65            2018  ""    [1][3]    
 9 Czech Republic         63 (and 4 months) 58 (and 8 mo… 2018  "In … [7]       
10 Denmark                67                67            2022  "In … [3][5]    
# … with 31 more rows
…
