A primer on APIs
…
[1] "UTF-8"

In our case, we need resp_body_json to extract the data.

Making your first request

resp_body_california_m <-
  resp_california_m %>%
  resp_body_json(simplifyVector = TRUE) %>%
  as_tibble()

resp_body_california_m

# A tibble: 5,848 × 11
   Country Region Code  Date  Sex   Age   AgeInt Metric Measure Value templateID
   <chr>   <chr>  <chr> <chr> <chr> <chr>  <int> <chr>  <chr>   <int> <chr>     
 1 USA     Calif… US-CA 2020… m     0         10 Count  Cases       0 USA_CDC_c…
 2 USA     Calif… US-CA 2020… m     10        10 Count  Cases       0 USA_CDC_c…
 3 USA     Calif… US-CA 2020… m     20        10 Count  Cases       2 USA_CDC_c…
 4 USA     Calif… US-CA 2020… m     30        10 Count  Cases       2 USA_CDC_c…
 5 USA     Calif… US-CA 2020… m     40        10 Count  Cases       1 USA_CDC_c…
 6 USA     Calif… US-CA 2020… m     50        10 Count  Cases       1 USA_CDC_c…
 7 USA     Calif… US-CA 2020… m     60        10 Count  Cases       1 USA_CDC_c…
 8 USA     Calif… US-CA 2020… m     70        10 Count  Cases       1 USA_CDC_c…
 9 USA     Calif… US-CA 2020… m     0         10 Count  Cases       0 USA_CDC_c…
10 USA     Calif… US-CA 2020… m     10        10 Count  Cases       0 USA_CDC_c…
# … with 5,838 more rows
…
